Chapter 17 Advanced Panel Data | R Companion to Real Econometrics
…
17.2 Variation within Units

dplyr verbs make checking for variation within units across multiple variables relatively simple. First we use group-by so that any functions will be applied to each state individually. summarize_all will apply a function to each variable.

library(tidyverse)
library(broom)
library(magrittr)
# Check for variaton by state.
Cigar %>% 
  group_by(state) %>% # ensures that subsequent functions will be performed by state
  select(price, pop, pop16, cpi, ndi, sales, pimin) %>% 
  summarise_all(sd) # sd is standard deviation 

# A tibble: 46 x 8
   state price    pop  pop16   cpi   ndi sales pimin
   <int> <dbl>  <dbl>  <dbl> <dbl> <dbl> <dbl> <dbl>
 1     1  39.6  269.   319.   37.1 3944.  10.7  38.0
 2     3  40.7  748.   622.   37.1 4364.  13.3  40.8
 3     4  41.5  189.   198.   37.1 3814.  10.8  37.6
 4     5  48.3 3995.  3531.   37.1 5264.  20.6  40.9
 5     7  48.0  139.   218.   37.1 6624.  18.2  43.7
 6     8  40.6   58.1   66.6  37.1 4921.  13.8  38.3
 7     9  45.4   79.5   34.7  37.1 6223.  59.3  38.2
 8    10  45.4 2562.  2229.   37.1 4889.  10.3  37.6
 9    11  37.6  783.   734.   37.1 4478.  10.0  35.9
10    13  41.6  136.   113.   37.1 3900.  14.3  37.5
# ... with 36 more rows

# Check for variation by year.
Cigar %>% 
  group_by(year) %>% 
  select(-year, -state) %>% # the "-" indicates variables to be removed
  summarise_all(sd)

# A tibble: 30 x 8
    year price   pop pop16   cpi   ndi sales pimin
   <int> <dbl> <dbl> <dbl> <dbl> <dbl> <dbl> <dbl>
 1    63  1.86 4116. 2855.     0  387.  33.1  1.21
 2    64  1.89 4185. 2903.     0  413.  32.8  1.41
 3    65  1.97 4253. 2953.     0  417.  33.1  1.68
 4    66  2.43 4285. 2982.     0  438.  41.6  2.25
 5    67  2.32 4329. 3024.     0  460.  37.9  2.10
 6    68  2.39 4372. 3069.     0  486.  33.4  2.23
 7    69  3.13 4420. 3139.     0  504.  32.0  2.28
 8    70  3.65 4463. 3198.     0  537.  32.0  3.24
 9    71  3.71 4513. 3260.     0  559.  33.5  3.27
10    72  4.45 4536. 3306.     0  555.  36.2  4.07
# ... with 20 more rows
…
