Chapter 4 Stats in the Wild: Good Data Practices | R Companion to Real Econometrics
…
The crime data can be found on the U.S. Department of Justice Federal Bureau of Investigation Uniform Crime Reporting Statistics website. The single parent, urban, and poverty data can found on the U.S. Census website.

An investigation of the CrimeOneYearofData.csv file shows that there is meta information contained in the file along with the data. We could open the csv file in Excel and edit it to remove the information or we could read it directly into R using read_csv from the readr package6 with options to ignore the meta information. The readr package has many advantages over the base R read functions, see vignette("readr") for more information.7

We can view the file by clicking on it in the Files tab of the pane in the lower right corner. Choose the view file option and a new tab will open in the source pane.8 We see tat the first nine rows are either blank or contain information about the data and that rows 63 to 183 contain footnotes and other additional information about the data. The names of the variables are in row ten of the csv file; so, we will skip the first nine rows using the argument skip. We will choose the rows that contain the states and Washington, D.C., with the n_max option.

crime_one_year_of_data <- 
  # read the data from its location
  read_csv("Data/CrimeOneYearofData.csv", 
                               skip = 9, # start at row 10
                               n_max = 51) # use only 51 records
crime_one_year_of_data

# A tibble: 51 x 9
   State Population `Violent Crime ~ `Murder and non~ `Legacy rape ra~
   <chr>      <dbl>            <dbl>            <dbl>            <dbl>
 1 Alab~    4708708             450.              6.8             31.9
 2 Alas~     698473             633.              3.1             73.4
 3 Ariz~    6595778             426.              5.8             34.6
 4 Arka~    2889450             516.              6.2             47.7
 5 Cali~   36961664             473.              5.3             23.6
 6 Colo~    5024748             339.              3.2             45.2
 7 Conn~    3518288             301.              3               18.7
 8 Dela~     885122             645.              4.6             44.6
 9 Dist~     599657            1349.             24.2             25  
10 Flor~   18537969             612.              5.5             29.7
# ... with 41 more rows, and 4 more variables: `Revised rape rate /2` <lgl>,
#   `Robbery rate` <dbl>, `Aggravated assault rate` <dbl>, X9 <chr>
…
The names of the variables follow good practice.

We will read the other data in a similar fashion.

# Source: U.S. Census Bureau, 2009 American Community Survey, Table C23008
acs_09_1yr_c23008_with_ann <- read_csv("Data/ACS_09_1YR_C23008_with_ann.csv", 
    skip = 1,
    n_max = 51) %>% 
  clean_names() 

acs_09_1yr_c23008_with_ann

# A tibble: 51 x 8
   id    id2   geography estimate_total estimate_under_~ estimate_under_~
   <chr> <chr> <chr>              <dbl>            <dbl>            <dbl>
 1 0400~ 01    Alabama          1059528           357122           141977
 2 0400~ 02    Alaska            174634            61489            20676
 3 0400~ 04    Arizona          1645424           591862           226729
 4 0400~ 05    Arkansas          670246           231937            91509
 5 0400~ 06    Californ~        8980424          3122142          1061375
 6 0400~ 08    Colorado         1177386           419960           116316
 7 0400~ 09    Connecti~         780490           244527            73174
 8 0400~ 10    Delaware          195738            67400            26102
 9 0400~ 11    District~         106701            40852            20741
10 0400~ 12    Florida          3853587          1311773           507149
# ... with 41 more rows, and 2 more variables: estimate_6_to_17_years <dbl>,
#   estimate_6_to_17_years_living_with_one_parent <dbl>

To create the percentage of children with single parents, add those under 6 living with one parent to those between 6 and 17 living with one parent and divide by the estimated total. We create the new variable with the mutate verb from dplyr and select geography as state and percent with single parents into a new data frame.

single_parents <- 
acs_09_1yr_c23008_with_ann %>% 
  mutate(percent_single_parents = 
           (estimate_under_6_years_living_with_one_parent + 
              estimate_6_to_17_years_living_with_one_parent) / 
           estimate_total) %>% 
  select(state = geography, percent_single_parents) 

single_parents

# A tibble: 51 x 2
   state                percent_single_parents
   <chr>                                 <dbl>
 1 Alabama                               0.389
 2 Alaska                                0.303
 3 Arizona                               0.365
 4 Arkansas                              0.378
 5 California                            0.324
 6 Colorado                              0.280
 7 Connecticut                           0.299
 8 Delaware                              0.376
 9 District of Columbia                  0.608
10 Florida                               0.377
# ... with 41 more rows

# Source: U.S. Census Bureau, 2009 American Community Survey, Table S1701
acs_09_1yr_s1701_with_ann <- 
  read_csv("Data/ACS_09_1YR_S1701_with_ann.csv", skip = 1, n_max = 51) %>% 
  clean_names() %>% 
  select("state" = geography, # directly name the variables when selected
         "percent_poverty" =
           percent_below_poverty_level_estimate_population_for_whom_poverty_status_is_determined)

acs_09_1yr_s1701_with_ann

# A tibble: 51 x 2
   state                percent_poverty
   <chr>                          <dbl>
 1 Alabama                         17.5
 2 Alaska                           9  
 3 Arizona                         16.5
 4 Arkansas                        18.8
 5 California                      14.2
 6 Colorado                        12.9
 7 Connecticut                      9.4
 8 Delaware                        10.8
 9 District of Columbia            18.4
10 Florida                         14.9
# ... with 41 more rows

To create the percent urban in 2009, we need to interpolate using the 2000 and 2010 censuses. After reading each set of data we will combine them into one data frame using right_join from the dplyr package. More on that below. First, let’s read the data.

# Source: U.S. Census Bureau, Table P002
dec_00_sf1_p002_with_ann <- read_csv("Data/DEC_00_SF1_P002_with_ann.csv", skip = 1) %>% 
  clean_names() %>%
  select(state = geography, total_00 = total , urban_00 = urban)

dec_00_sf1_p002_with_ann

# A tibble: 51 x 3
   state                total_00 urban_00
   <chr>                   <dbl>    <dbl>
 1 Alabama               4447100  2465673
 2 Alaska                 626932   411257
 3 Arizona               5130632  4523535
 4 Arkansas              2673400  1404179
 5 California           33871648 31989663
 6 Colorado              4301261  3633185
 7 Connecticut           3405565  2988059
 8 Delaware               783600   627758
 9 District of Columbia   572059   572059
10 Florida              15982378 14270020
# ... with 41 more rows

# Source: U.S. Census Bureau, Table H2
dec_10_sf1_p2_with_ann <- read_csv("Data/DEC_10_SF1_P2_with_ann.csv", skip = 1) %>% 
  clean_names() %>%
  select("state" = geography, "total_10" = total , "urban_10" = urban) 

dec_10_sf1_p2_with_ann

# A tibble: 51 x 3
   state                total_10         urban_10
   <chr>                <chr>               <dbl>
 1 Alabama              4779736(r38235)   2821804
 2 Alaska               710231(r38823)     468893
 3 Arizona              6392017           5740659
 4 Arkansas             2915918(r39193)   1637589
 5 California           37253956         35373606
 6 Colorado             5029196           4332761
 7 Connecticut          3574097           3144942
 8 Delaware             897934             747949
 9 District of Columbia 601723(r39494)     601723
10 Florida              18801310(r40184) 17139844
# ... with 41 more rows
…
We see that total_10 is now a numeric vector.

We can now combine the two data frames using right_join from the dplyr package. Since each data frame contains state, right_join will join the columns from the 2010 census to the end (right) of the 2000 census matching observations by state. We will assign the result to percent_urban.

urban <- dec_00_sf1_p002_with_ann %>% 
  right_join(dec_10_sf1_p2_with_ann)

urban 

# A tibble: 51 x 5
   state                total_00 urban_00 total_10 urban_10
   <chr>                   <dbl>    <dbl>    <dbl>    <dbl>
 1 Alabama               4447100  2465673  4779736  2821804
 2 Alaska                 626932   411257   710231   468893
 3 Arizona               5130632  4523535  6392017  5740659
 4 Arkansas              2673400  1404179  2915918  1637589
 5 California           33871648 31989663 37253956 35373606
 6 Colorado              4301261  3633185  5029196  4332761
 7 Connecticut           3405565  2988059  3574097  3144942
 8 Delaware               783600   627758   897934   747949
 9 District of Columbia   572059   572059   601723   601723
10 Florida              15982378 14270020 18801310 17139844
# ... with 41 more rows

We can, now, interpolate the 2009 observations from the 2000 and 2010 observations. Since 2009 is nine tenths of the distance to 2010 from 2000, we will add 9/10 of the difference between the two observations to the 2000 observation.

urban %<>% 
  mutate(percent_urban = (.9 * (urban_10 - urban_00) + urban_00) / 
           (.9 * (total_10 - total_00) + total_00) * 100) %>% 
  select(state, percent_urban)

urban

# A tibble: 51 x 2
   state                percent_urban
   <chr>                        <dbl>
 1 Alabama                       58.7
 2 Alaska                        66.0
 3 Arizona                       89.7
 4 Arkansas                      55.8
 5 California                    94.9
 6 Colorado                      86.0
 7 Connecticut                   88.0
 8 Delaware                      83.0
 9 District of Columbia         100  
10 Florida                       91.0
# ... with 41 more rows

We now have 4 data frames containing the information we need to create Table 2.5 and Figure 2.3. We will create a one data frame by joining the four data frames using the dplyr package.

crime_df <- crime_one_year_of_data %>% 
  right_join(single_parents) %>% 
  right_join(urban) %>% 
  right_join(acs_09_1yr_s1701_with_ann) %>% 
  select(state, violent_crime_rate, percent_single_parents,
         percent_urban, percent_poverty)

crime_df

# A tibble: 51 x 5
   state       violent_crime_r~ percent_single_pa~ percent_urban percent_poverty
   <chr>                  <dbl>              <dbl>         <dbl>           <dbl>
 1 Alabama                 450.              0.389          58.7            17.5
 2 Alaska                  633.              0.303          66.0             9  
 3 Arizona                 426.              0.365          89.7            16.5
 4 Arkansas                516.              0.378          55.8            18.8
 5 California              473.              0.324          94.9            14.2
 6 Colorado                339.              0.280          86.0            12.9
 7 Connecticut             301.              0.299          88.0             9.4
 8 Delaware                645.              0.376          83.0            10.8
 9 District o~            1349.              0.608         100              18.4
10 Florida                 612.              0.377          91.0            14.9
# ... with 41 more rows
…
